{
    "id": "2",
    "customer-id": "2",
    "items": [
        {
            "product-id": "B102",
            "quantity": "5",
            "unit-price": "4.99",
            "total": "24.95"
        }
    ],
    "total": "24.95"
}
